Näidis markdown dokumendist
…
Otsing

Otsisin sõnu, mis sisaldavad tähejärjendit ‘elekt’, ja tegin neist sagedusloendi.

elekt_tyybid <- elekt_sonad %>% 
  filter(str_detect(word,"elekt")) %>% 
  count(word,sort=T)

Vaatasin esimesed 150 nimetust sealt ja valisin sealt mõned otsingusõnad

elekt_tyybid %>% 
  filter(row_number()<151) 

## # A tibble: 150 x 2
##    word               n
##    <chr>          <int>
##  1 elektri        13735
##  2 elektrijaama    3676
##  3 elekter         3263
##  4 elektriga       1937
##  5 elektrivalg     1839
##  6 elektrijaam     1203
##  7 elektriwalg     1151
##  8 elektriv        1060
##  9 elektrit        1037
## 10 elektrotehnika   763
## # … with 140 more rows
…
